{
  "page": 1,
  "total_results": 10000,
  "total_pages": 500,
  "results": [
    {
      "popularity": 423.58,
      "vote_count": 184,
      "video": false,
      "poster_path": "\/AsdB9A2XGalCZVjlyG9tRf03IfW.jpg",
      "id": 516486,
      "adult": false,
      "backdrop_path": "\/xXBnM6uSTk6qqCf0SRZKXcga9Ba.jpg",
      "original_language": "en",
      "original_title": "Greyhound",
      "genre_ids": [
        28,
        18,
        10752
      ],
      "title": "Greyhound",
      "vote_average": 7.2,
      "overview": "A first-time captain leads a convoy of allied ships carrying thousands of soldiers across the treacherous waters of the “Black Pit” to the front lines of WW2. With no air cover protection for 5 days, the captain and his convoy must battle the surrounding enemy Nazi U-boats in order to give the allies a chance to win the war.",
      "release_date": "2020-07-10"
    },
    {
      "popularity": 387.518,
      "vote_count": 758,
      "video": false,
      "poster_path": "\/cjr4NWURcVN3gW5FlHeabgBHLrY.jpg",
      "id": 547016,
      "adult": false,
      "backdrop_path": "\/m0ObOaJBerZ3Unc74l471ar8Iiy.jpg",
      "original_language": "en",
      "original_title": "The Old Guard",
      "genre_ids": [
        28,
        14
      ],
      "title": "The Old Guard",
      "vote_average": 7.3,
      "overview": "Four undying warriors who've secretly protected humanity for centuries become targeted for their mysterious powers just as they discover a new immortal.",
      "release_date": "2020-07-10"
    },
    {
      "popularity": 149.547,
      "vote_count": 3929,
      "video": false,
      "poster_path": "\/xBHvZcjRiWyobQ9kxBhO6B2dtRI.jpg",
      "id": 419704,
      "adult": false,
      "backdrop_path": "\/AeDS2MKGFy6QcjgWbJBde0Ga6Hd.jpg",
      "original_language": "en",
      "original_title": "Ad Astra",
      "genre_ids": [
        18,
        878
      ],
      "title": "Ad Astra",
      "vote_average": 6.1,
      "overview": "The near future, a time when both hope and hardships drive humanity to look to the stars and beyond. While a mysterious phenomenon menaces to destroy life on planet Earth, astronaut Roy McBride undertakes a mission across the immensity of space and its many perils to uncover the truth about a lost expedition that decades before boldly faced emptiness and silence in search of the unknown.",
      "release_date": "2019-09-17"
    },
    {
      "popularity": 115.434,
      "vote_count": 134,
      "video": false,
      "poster_path": "\/hPkqY2EMqWUnFEoedukilIUieVG.jpg",
      "id": 531876,
      "adult": false,
      "backdrop_path": "\/n1RohH2VoK1CdVI2fXvcP19dSlm.jpg",
      "original_language": "en",
      "original_title": "The Outpost",
      "genre_ids": [
        28,
        18,
        36,
        10752
      ],
      "title": "The Outpost",
      "vote_average": 7.1,
      "overview": "A small unit of U.S. soldiers, alone at the remote Combat Outpost Keating, located deep in the valley of three mountains in Afghanistan, battles to defend against an overwhelming force of Taliban fighters in a coordinated attack. The Battle of Kamdesh, as it was known, was the bloodiest American engagement of the Afghan War in 2009 and Bravo Troop 3-61 CAV became one of the most decorated units of the 19-year conflict.",
      "release_date": "2020-06-24"
    },
    {
      "popularity": 111.923,
      "vote_count": 13729,
      "video": false,
      "poster_path": "\/udDclJoHjfjb8Ekgsd4FDteOkCU.jpg",
      "id": 475557,
      "adult": false,
      "backdrop_path": "\/n6bUvigpRFqSwmPp1m2YADdbRBc.jpg",
      "original_language": "en",
      "original_title": "Joker",
      "genre_ids": [
        80,
        18,
        53
      ],
      "title": "Joker",
      "vote_average": 8.2,
      "overview": "During the 1980s, a failed stand-up comedian is driven insane and turns to a life of crime and chaos in Gotham City while becoming an infamous psychopathic crime figure.",
      "release_date": "2019-10-02"
    },
    {
      "popularity": 90.458,
      "vote_count": 1238,
      "video": false,
      "poster_path": "\/jHo2M1OiH9Re33jYtUQdfzPeUkx.jpg",
      "id": 385103,
      "adult": false,
      "backdrop_path": "\/fKtYXUhX5fxMxzQfyUcQW9Shik6.jpg",
      "original_language": "en",
      "original_title": "Scoob!",
      "genre_ids": [
        12,
        16,
        35,
        9648,
        10751
      ],
      "title": "Scoob!",
      "vote_average": 8,
      "overview": "In Scooby-Doo’s greatest adventure yet, see the never-before told story of how lifelong friends Scooby and Shaggy first met and how they joined forces with young detectives Fred, Velma, and Daphne to form the famous Mystery Inc. Now, with hundreds of cases solved, Scooby and the gang face their biggest, toughest mystery ever: an evil plot to unleash the ghost dog Cerberus upon the world. As they race to stop this global “dogpocalypse,” the gang discovers that Scooby has a secret legacy and an epic destiny greater than anyone ever imagined.",
      "release_date": "2020-05-15"
    },
    {
      "popularity": 98.861,
      "vote_count": 5070,
      "video": false,
      "poster_path": "\/aQvJ5WPzZgYVDrxLX4R6cLJCEaQ.jpg",
      "id": 454626,
      "adult": false,
      "backdrop_path": "\/stmYfCUGd8Iy6kAMBr6AmWqx8Bq.jpg",
      "original_language": "en",
      "original_title": "Sonic the Hedgehog",
      "genre_ids": [
        28,
        35,
        878,
        10751
      ],
      "title": "Sonic the Hedgehog",
      "vote_average": 7.5,
      "overview": "Based on the global blockbuster videogame franchise from Sega, Sonic the Hedgehog tells the story of the world’s speediest hedgehog as he embraces his new home on Earth. In this live-action adventure comedy, Sonic and his new best friend team up to defend the planet from the evil genius Dr. Robotnik and his plans for world domination.",
      "release_date": "2020-02-12"
    },
    {
      "popularity": 79.7,
      "vote_count": 4967,
      "video": false,
      "poster_path": "\/h4VB6m0RwcicVEZvzftYZyKXs6K.jpg",
      "id": 495764,
      "adult": false,
      "backdrop_path": "\/9xNOiv6DZZjH7ABoUUDP0ZynouU.jpg",
      "original_language": "en",
      "original_title": "Birds of Prey (and the Fantabulous Emancipation of One Harley Quinn)",
      "genre_ids": [
        28,
        35,
        80,
        18
      ],
      "title": "Birds of Prey (and the Fantabulous Emancipation of One Harley Quinn)",
      "vote_average": 7.2,
      "overview": "Harley Quinn joins forces with a singer, an assassin and a police detective to help a young girl who had a hit placed on her after she stole a rare diamond from a crime lord.",
      "release_date": "2020-02-05"
    },
    {
      "popularity": 92.608,
      "vote_count": 18909,
      "video": false,
      "poster_path": "\/7WsyChQLEftFiDOVTGkv3hFpyyt.jpg",
      "id": 299536,
      "adult": false,
      "backdrop_path": "\/lmZFxXgJE3vgrciwuDib0N8CfQo.jpg",
      "original_language": "en",
      "original_title": "Avengers: Infinity War",
      "genre_ids": [
        28,
        12,
        878
      ],
      "title": "Avengers: Infinity War",
      "vote_average": 8.3,
      "overview": "As the Avengers and their allies have continued to protect the world from threats too large for any one hero to handle, a new danger has emerged from the cosmic shadows: Thanos. A despot of intergalactic infamy, his goal is to collect all six Infinity Stones, artifacts of unimaginable power, and use them to inflict his twisted will on all of reality. Everything the Avengers have fought for has led up to this moment - the fate of Earth and existence itself has never been more uncertain.",
      "release_date": "2018-04-25"
    },
    {
      "popularity": 53.723,
      "vote_count": 8479,
      "video": false,
      "poster_path": "\/gajva2L0rPYkEWjzgFlBXCAVBE5.jpg",
      "id": 335984,
      "adult": false,
      "backdrop_path": "\/sAtoMqDVhNDQBc3QJL3RF6hlhGq.jpg",
      "original_language": "en",
      "original_title": "Blade Runner 2049",
      "genre_ids": [
        18,
        878
      ],
      "title": "Blade Runner 2049",
      "vote_average": 7.4,
      "overview": "Thirty years after the events of the first film, a new blade runner, LAPD Officer K, unearths a long-buried secret that has the potential to plunge what's left of society into chaos. K's discovery leads him on a quest to find Rick Deckard, a former LAPD blade runner who has been missing for 30 years.",
      "release_date": "2017-10-04"
    },
    {
      "popularity": 79.379,
      "vote_count": 23035,
      "video": false,
      "poster_path": "\/gEU2QniE6E77NI6lCU6MxlNBvIx.jpg",
      "id": 157336,
      "adult": false,
      "backdrop_path": "\/xJHokMbljvjADYdit5fK5VQsXEG.jpg",
      "original_language": "en",
      "original_title": "Interstellar",
      "genre_ids": [
        12,
        18,
        878
      ],
      "title": "Interstellar",
      "vote_average": 8.3,
      "overview": "The adventures of a group of explorers who make use of a newly discovered wormhole to surpass the limitations on human space travel and conquer the vast distances involved in an interstellar voyage.",
      "release_date": "2014-11-05"
    },
    {
      "popularity": 93.5,
      "vote_count": 39,
      "video": false,
      "poster_path": "\/3wZ0gxLqsPleneFSTZILmM3BE8Q.jpg",
      "id": 539181,
      "adult": false,
      "backdrop_path": "\/vpUUznNzW85xo02H16RaSxRNS1.jpg",
      "original_language": "en",
      "original_title": "Relic",
      "genre_ids": [
        18,
        27
      ],
      "title": "Relic",
      "vote_average": 6.4,
      "overview": "When Edna, the elderly and widowed matriarch of the family, goes missing, her daughter Kay and granddaughter Sam travel to their remote family home to find her. Soon after her return, they start to discover a sinister presence haunting the house and taking control of Edna.",
      "release_date": "2020-07-03"
    },
    {
      "popularity": 78.479,
      "vote_count": 8371,
      "video": false,
      "poster_path": "\/7IiTTgloJzvGI1TAYymCfbfl3vT.jpg",
      "id": 496243,
      "adult": false,
      "backdrop_path": "\/ApiBzeaa95TNYliSbQ8pJv4Fje7.jpg",
      "original_language": "ko",
      "original_title": "기생충",
      "genre_ids": [
        35,
        18,
        53
      ],
      "title": "Parasite",
      "vote_average": 8.5,
      "overview": "All unemployed, Ki-taek's family takes peculiar interest in the wealthy and glamorous Parks for their livelihood until they get entangled in an unexpected incident.",
      "release_date": "2019-05-30"
    },
    {
      "popularity": 76.53,
      "vote_count": 637,
      "video": false,
      "poster_path": "\/tI8ocADh22GtQFV28vGHaBZVb0U.jpg",
      "id": 475430,
      "adult": false,
      "backdrop_path": "\/o0F8xAt8YuEm5mEZviX5pEFC12y.jpg",
      "original_language": "en",
      "original_title": "Artemis Fowl",
      "genre_ids": [
        12,
        14,
        878,
        10751
      ],
      "title": "Artemis Fowl",
      "vote_average": 5.8,
      "overview": "Artemis Fowl is a 12-year-old genius and descendant of a long line of criminal masterminds. He soon finds himself in an epic battle against a race of powerful underground fairies who may be behind his father's disappearance.",
      "release_date": "2020-06-12"
    },
    {
      "popularity": 117.452,
      "vote_count": 3671,
      "video": false,
      "poster_path": "\/xvx4Yhf0DVH8G4LzNISpMfFBDy2.jpg",
      "id": 166428,
      "adult": false,
      "backdrop_path": "\/lFwykSz3Ykj1Q3JXJURnGUTNf1o.jpg",
      "original_language": "en",
      "original_title": "How to Train Your Dragon: The Hidden World",
      "genre_ids": [
        12,
        16,
        10751
      ],
      "title": "How to Train Your Dragon: The Hidden World",
      "vote_average": 7.8,
      "overview": "As Hiccup fulfills his dream of creating a peaceful dragon utopia, Toothless’ discovery of an untamed, elusive mate draws the Night Fury away. When danger mounts at home and Hiccup’s reign as village chief is tested, both dragon and rider must make impossible decisions to save their kind.",
      "release_date": "2019-01-03"
    },
    {
      "popularity": 76.007,
      "vote_count": 227,
      "video": false,
      "poster_path": "\/h1B7tW0t399VDjAcWJh8m87469b.jpg",
      "id": 556574,
      "adult": false,
      "backdrop_path": "\/uWVkEo9PWHu9algZsiLPi6sRU64.jpg",
      "original_language": "en",
      "original_title": "Hamilton",
      "genre_ids": [
        18,
        36,
        10402
      ],
      "title": "Hamilton",
      "vote_average": 8.6,
      "overview": "Presenting the tale of American founding father Alexander Hamilton, this filmed version of the original Broadway smash hit is the story of America then, told by America now.",
      "release_date": "2020-07-03"
    },
    {
      "popularity": 59.622,
      "vote_count": 6333,
      "video": false,
      "poster_path": "\/dzBtMocZuJbjLOXvrl4zGYigDzh.jpg",
      "id": 420818,
      "adult": false,
      "backdrop_path": "\/nRXO2SnOA75OsWhNhXstHB8ZmI3.jpg",
      "original_language": "en",
      "original_title": "The Lion King",
      "genre_ids": [
        12,
        10751
      ],
      "title": "The Lion King",
      "vote_average": 7.2,
      "overview": "Simba idolizes his father, King Mufasa, and takes to heart his own royal destiny. But not everyone in the kingdom celebrates the new cub's arrival. Scar, Mufasa's brother—and former heir to the throne—has plans of his own. The battle for Pride Rock is ravaged with betrayal, tragedy and drama, ultimately resulting in Simba's exile. With help from a curious pair of newfound friends, Simba will have to figure out how to grow up and take back what is rightfully his.",
      "release_date": "2019-07-12"
    },
    {
      "popularity": 81.521,
      "vote_count": 297,
      "video": false,
      "poster_path": "\/rpqfpSglhDpwihzsLaoketuYKbd.jpg",
      "id": 514207,
      "adult": false,
      "backdrop_path": "\/cbJNZeFkiG4ggsNcwzBs6yeCXga.jpg",
      "original_language": "ru",
      "original_title": "Вторжение",
      "genre_ids": [
        28,
        878
      ],
      "title": "Invasion",
      "vote_average": 7.1,
      "overview": "After the fall of the alien ship, it took three years. The catastrophe turned the girl's life from Chertanovo and forever changed our view of the universe. It seems that this was the biggest test for all of us. But mankind does not yet know that very soon he will have to experience a new meeting.",
      "release_date": "2020-01-01"
    },
    {
      "popularity": 68.169,
      "vote_count": 5397,
      "video": false,
      "poster_path": "\/pjeMs3yqRmFL3giJy4PMXWZTTPa.jpg",
      "id": 330457,
      "adult": false,
      "backdrop_path": "\/xJWPZIYOEFIjZpBL7SVBGnzRYXp.jpg",
      "original_language": "en",
      "original_title": "Frozen II",
      "genre_ids": [
        12,
        16,
        10751
      ],
      "title": "Frozen II",
      "vote_average": 7.3,
      "overview": "Elsa, Anna, Kristoff and Olaf head far into the forest to learn the truth about an ancient mystery of their kingdom.",
      "release_date": "2019-11-20"
    },
    {
      "popularity": 68.44,
      "vote_count": 108,
      "video": false,
      "poster_path": "\/GAeK18hkfR6rzlo1vITvQhoEiW.jpg",
      "id": 428045,
      "adult": false,
      "backdrop_path": "\/5yiCqzmxYv36GGdc05egCMHedbX.jpg",
      "original_language": "ru",
      "original_title": "Тайна Печати дракона",
      "genre_ids": [
        12,
        14
      ],
      "title": "Journey to China: The Mystery of Iron Mask",
      "vote_average": 6.1,
      "overview": "The Russian Czar Peter the Great commissions Jonathan Green, an English traveller, to map the Far East territories of the Russian Empire. Green sets off on yet another long journey, full of unbelievable adventures, which eventually leads him to China. On his way, the famous cartographer makes breath-taking discoveries, meets mysterious creatures, Chinese princesses, deadly masters of oriental martial arts, and even Lun Van, the King of Dragons, himself. What could be more perilous than looking into the eyes of Viy? Only meeting him again… What will prevail this time — the unflinching scepticism of the scientist or ancient black magic, which has already gained influence over the Far East Lands?",
      "release_date": "2019-08-16"
    }
  ]
}